serial-datapath/sim/top_module_tb.vcd
$date
	Thu Jul 16 22:27:40 2026
$end
$version
	ModelSim Version 10.1d
$end
$timescale
	1ps
$end
$scope module TOP_MODULE_tb $end
$var parameter 32 ! WIDTH $end
$var parameter 32 " ADDR_WIDTH $end
$var parameter 32 # ALU_OUT $end
$var parameter 32 $ NUM_TEST_WORDS $end
$var reg 1 % clk $end
$var reg 1 & rst_n $end
$var reg 1 ' wr_en $end
$var reg 8 ( addr [7:0] $end
$var reg 20 ) din [19:0] $end
$var wire 1 * out [7] $end
$var wire 1 + out [6] $end
$var wire 1 , out [5] $end
$var wire 1 - out [4] $end
$var wire 1 . out [3] $end
$var wire 1 / out [2] $end
$var wire 1 0 out [1] $end
$var wire 1 1 out [0] $end
$var wire 1 2 a_is_zero $end
$var integer 32 3 word_num $end
$scope function make_word $end
$var reg 20 4 make_word [19:0] $end
$var reg 1 5 alu_en $end
$var reg 3 6 opcode [2:0] $end
$var reg 8 7 in_a [7:0] $end
$var reg 8 8 in_b [7:0] $end
$upscope $end
$scope module DUT $end
$var parameter 32 9 WIDTH $end
$var parameter 32 : Addr_width $end
$var parameter 32 ; ALU_OUT $end
$var wire 1 < clk $end
$var wire 1 = rst_n $end
$var wire 1 > wr_en $end
$var wire 1 ? addr [7] $end
$var wire 1 @ addr [6] $end
$var wire 1 A addr [5] $end
$var wire 1 B addr [4] $end
$var wire 1 C addr [3] $end
$var wire 1 D addr [2] $end
$var wire 1 E addr [1] $end
$var wire 1 F addr [0] $end
$var wire 1 G din [19] $end
$var wire 1 H din [18] $end
$var wire 1 I din [17] $end
$var wire 1 J din [16] $end
$var wire 1 K din [15] $end
$var wire 1 L din [14] $end
$var wire 1 M din [13] $end
$var wire 1 N din [12] $end
$var wire 1 O din [11] $end
$var wire 1 P din [10] $end
$var wire 1 Q din [9] $end
$var wire 1 R din [8] $end
$var wire 1 S din [7] $end
$var wire 1 T din [6] $end
$var wire 1 U din [5] $end
$var wire 1 V din [4] $end
$var wire 1 W din [3] $end
$var wire 1 X din [2] $end
$var wire 1 Y din [1] $end
$var wire 1 Z din [0] $end
$var wire 1 * out [7] $end
$var wire 1 + out [6] $end
$var wire 1 , out [5] $end
$var wire 1 - out [4] $end
$var wire 1 . out [3] $end
$var wire 1 / out [2] $end
$var wire 1 0 out [1] $end
$var wire 1 1 out [0] $end
$var wire 1 2 a_is_zero $end
$var wire 1 [ parallel_out [19] $end
$var wire 1 \ parallel_out [18] $end
$var wire 1 ] parallel_out [17] $end
$var wire 1 ^ parallel_out [16] $end
$var wire 1 _ parallel_out [15] $end
$var wire 1 ` parallel_out [14] $end
$var wire 1 a parallel_out [13] $end
$var wire 1 b parallel_out [12] $end
$var wire 1 c parallel_out [11] $end
$var wire 1 d parallel_out [10] $end
$var wire 1 e parallel_out [9] $end
$var wire 1 f parallel_out [8] $end
$var wire 1 g parallel_out [7] $end
$var wire 1 h parallel_out [6] $end
$var wire 1 i parallel_out [5] $end
$var wire 1 j parallel_out [4] $end
$var wire 1 k parallel_out [3] $end
$var wire 1 l parallel_out [2] $end
$var wire 1 m parallel_out [1] $end
$var wire 1 n parallel_out [0] $end
$var wire 1 o ram_dout [19] $end
$var wire 1 p ram_dout [18] $end
$var wire 1 q ram_dout [17] $end
$var wire 1 r ram_dout [16] $end
$var wire 1 s ram_dout [15] $end
$var wire 1 t ram_dout [14] $end
$var wire 1 u ram_dout [13] $end
$var wire 1 v ram_dout [12] $end
$var wire 1 w ram_dout [11] $end
$var wire 1 x ram_dout [10] $end
$var wire 1 y ram_dout [9] $end
$var wire 1 z ram_dout [8] $end
$var wire 1 { ram_dout [7] $end
$var wire 1 | ram_dout [6] $end
$var wire 1 } ram_dout [5] $end
$var wire 1 ~ ram_dout [4] $end
$var wire 1 !! ram_dout [3] $end
$var wire 1 "! ram_dout [2] $end
$var wire 1 #! ram_dout [1] $end
$var wire 1 $! ram_dout [0] $end
$var wire 1 %! ram_valid $end
$var wire 1 &! PISO_out $end
$var wire 1 '! en $end
$var wire 1 (! PISO_valid $end
$var wire 1 )! piso_addr [7] $end
$var wire 1 *! piso_addr [6] $end
$var wire 1 +! piso_addr [5] $end
$var wire 1 ,! piso_addr [4] $end
$var wire 1 -! piso_addr [3] $end
$var wire 1 .! piso_addr [2] $end
$var wire 1 /! piso_addr [1] $end
$var wire 1 0! piso_addr [0] $end
$scope module U1 $end
$var parameter 32 1! ADDR_WIDTH $end
$var parameter 32 2! DATA_WIDTH $end
$var wire 1 < clk $end
$var wire 1 = rst_n $end
$var wire 1 > wr_en $end
$var wire 1 '! rd_en $end
$var wire 1 3! addr [7] $end
$var wire 1 4! addr [6] $end
$var wire 1 5! addr [5] $end
$var wire 1 6! addr [4] $end
$var wire 1 7! addr [3] $end
$var wire 1 8! addr [2] $end
$var wire 1 9! addr [1] $end
$var wire 1 :! addr [0] $end
$var wire 1 G din [19] $end
$var wire 1 H din [18] $end
$var wire 1 I din [17] $end
$var wire 1 J din [16] $end
$var wire 1 K din [15] $end
$var wire 1 L din [14] $end
$var wire 1 M din [13] $end
$var wire 1 N din [12] $end
$var wire 1 O din [11] $end
$var wire 1 P din [10] $end
$var wire 1 Q din [9] $end
$var wire 1 R din [8] $end
$var wire 1 S din [7] $end
$var wire 1 T din [6] $end
$var wire 1 U din [5] $end
$var wire 1 V din [4] $end
$var wire 1 W din [3] $end
$var wire 1 X din [2] $end
$var wire 1 Y din [1] $end
$var wire 1 Z din [0] $end
$var reg 20 ;! dout [19:0] $end
$var reg 1 <! valid $end
$var integer 32 =! i $end
$upscope $end
$scope module U2 $end
$var parameter 32 >! WIDTH $end
$var parameter 32 ?! ADDR_WIDTH $end
$var wire 1 < clk $end
$var wire 1 = rst_n $end
$var wire 1 o parallel_in [19] $end
$var wire 1 p parallel_in [18] $end
$var wire 1 q parallel_in [17] $end
$var wire 1 r parallel_in [16] $end
$var wire 1 s parallel_in [15] $end
$var wire 1 t parallel_in [14] $end
$var wire 1 u parallel_in [13] $end
$var wire 1 v parallel_in [12] $end
$var wire 1 w parallel_in [11] $end
$var wire 1 x parallel_in [10] $end
$var wire 1 y parallel_in [9] $end
$var wire 1 z parallel_in [8] $end
$var wire 1 { parallel_in [7] $end
$var wire 1 | parallel_in [6] $end
$var wire 1 } parallel_in [5] $end
$var wire 1 ~ parallel_in [4] $end
$var wire 1 !! parallel_in [3] $end
$var wire 1 "! parallel_in [2] $end
$var wire 1 #! parallel_in [1] $end
$var wire 1 $! parallel_in [0] $end
$var wire 1 %! ram_valid $end
$var reg 1 @! en $end
$var reg 1 A! serial_out $end
$var reg 1 B! valid $end
$var reg 8 C! addr [7:0] $end
$var reg 5 D! count [4:0] $end
$var reg 20 E! shift_register [19:0] $end
$var reg 1 F! loading $end
$upscope $end
$scope module U3 $end
$var parameter 32 G! WIDTH $end
$var wire 1 < clk $end
$var wire 1 (! shift_en $end
$var wire 1 = rst_n $end
$var wire 1 &! serial_in $end
$var reg 20 H! parallel_out [19:0] $end
$upscope $end
$scope module U4 $end
$var parameter 32 I! WIDTH $end
$var wire 1 [ alu_en $end
$var wire 1 \ opcode [2] $end
$var wire 1 ] opcode [1] $end
$var wire 1 ^ opcode [0] $end
$var wire 1 _ in_a [7] $end
$var wire 1 ` in_a [6] $end
$var wire 1 a in_a [5] $end
$var wire 1 b in_a [4] $end
$var wire 1 c in_a [3] $end
$var wire 1 d in_a [2] $end
$var wire 1 e in_a [1] $end
$var wire 1 f in_a [0] $end
$var wire 1 g in_b [7] $end
$var wire 1 h in_b [6] $end
$var wire 1 i in_b [5] $end
$var wire 1 j in_b [4] $end
$var wire 1 k in_b [3] $end
$var wire 1 l in_b [2] $end
$var wire 1 m in_b [1] $end
$var wire 1 n in_b [0] $end
$var reg 8 J! alu_out [7:0] $end
$var reg 1 K! a_is_zero $end
$upscope $end
$upscope $end
$upscope $end
$enddefinitions $end
#0
$dumpvars
0%
0&
0'
b0 (
b0 )
b0 ;!
0<!
1@!
0A!
0B!
b0 C!
b0 D!
bx E!
0F!
b0 H!
b0 J!
0K!
bx 4
x5
bx 6
bx 7
bx 8
b10100 !
b1000 "
b1000 #
b111 $
b10100 9
b1000 :
b1000 ;
b1000 1!
b10100 2!
b10100 >!
b1000 ?!
b10100 G!
b1000 I!
bx =!
b0 3
01
00
0/
0.
0-
0,
0+
0*
02
0n
0m
0l
0k
0j
0i
0h
0g
0f
0e
0d
0c
0b
0a
0`
0_
0^
0]
0\
0[
0$!
0#!
0"!
0!!
0~
0}
0|
0{
0z
0y
0x
0w
0v
0u
0t
0s
0r
0q
0p
0o
0%!
0&!
1'!
0(!
00!
0/!
0.!
0-!
0,!
0+!
0*!
0)!
0Z
0Y
0X
0W
0V
0U
0T
0S
0R
0Q
0P
0O
0N
0M
0L
0K
0J
0I
0H
0G
0F
0E
0D
0C
0B
0A
0@
0?
0>
0=
0<
0:!
09!
08!
07!
06!
05!
04!
03!
$end
#5000
1%
1<
#10000
0%
0<
#15000
1%
1<
#20000
0%
0<
1&
15
b0 6
b1010 7
b101 8
b10000000101000000101 4
b1 6
b1010 8
b10010000101000001010 4
b10 6
b11111111 7
b1111 8
b10101111111100001111 4
b11 6
b10111111111100001111 4
b100 6
b1111 7
b11110000 8
b11000000111111110000 4
05
b0 6
b1010 7
b101 8
b101000000101 4
15
b0 7
b10000000000000000101 4
1=
#25000
1%
1<
b10000000101000000101 ;!
1<!
1$!
1"!
1y
1w
1o
1%!
#30000
0%
0<
#35000
1%
1<
b10000000101000000101 E!
1F!
0@!
0'!
#40000
0%
0<
#45000
1%
1<
0<!
1A!
b1010000001010 E!
b1 D!
1B!
0%!
1&!
1(!
#50000
0%
0<
#55000
1%
1<
0A!
b10100000010100 E!
b10 D!
b1 H!
0&!
1n
#60000
0%
0<
#65000
1%
1<
b101000000101000 E!
b11 D!
b10 H!
0n
1m
#70000
0%
0<
#75000
1%
1<
b1010000001010000 E!
b100 D!
b100 H!
0m
1l
#80000
0%
0<
#85000
1%
1<
b10100000010100000 E!
b101 D!
b1000 H!
0l
1k
#90000
0%
0<
#95000
1%
1<
b101000000101000000 E!
b110 D!
b10000 H!
0k
1j
#100000
0%
0<
#105000
1%
1<
b1010000001010000000 E!
b111 D!
b100000 H!
0j
1i
#110000
0%
0<
#115000
1%
1<
b10100000010100000000 E!
b1000 D!
b1000000 H!
0i
1h
#120000
0%
0<
#125000
1%
1<
1A!
b1000000101000000000 E!
b1001 D!
b10000000 H!
1&!
0h
1g
#130000
0%
0<
#135000
1%
1<
0A!
b10000001010000000000 E!
b1010 D!
b100000001 H!
0&!
1n
0g
1f
#140000
0%
0<
#145000
1%
1<
1A!
b10100000000000 E!
b1011 D!
b1000000010 H!
1&!
0n
1m
0f
1e
#150000
0%
0<
#155000
1%
1<
0A!
b101000000000000 E!
b1100 D!
b10000000101 H!
0&!
1n
0m
1l
0e
1d
#160000
0%
0<
#165000
1%
1<
b1010000000000000 E!
b1101 D!
b100000001010 H!
0n
1m
0l
1k
0d
1c
#170000
0%
0<
#175000
1%
1<
b10100000000000000 E!
b1110 D!
b1000000010100 H!
0m
1l
0k
1j
0c
1b
#180000
0%
0<
#185000
1%
1<
b101000000000000000 E!
b1111 D!
b10000000101000 H!
0l
1k
0j
1i
0b
1a
#190000
0%
0<
#195000
1%
1<
b1010000000000000000 E!
b10000 D!
b100000001010000 H!
0k
1j
0i
1h
0a
1`
#200000
0%
0<
#205000
1%
1<
b10100000000000000000 E!
b10001 D!
b1000000010100000 H!
0j
1i
0h
1g
0`
1_
#210000
0%
0<
#215000
1%
1<
1A!
b1000000000000000000 E!
b10010 D!
b10000000101000000 H!
1&!
0i
1h
0g
1f
0_
1^
#220000
0%
0<
#225000
1%
1<
0A!
b10000000000000000000 E!
b10011 D!
b100000001010000001 H!
0&!
1n
0h
1g
0f
1e
0^
1]
#230000
0%
0<
#235000
1%
1<
1A!
b0 E!
b10100 D!
0F!
1@!
b0 D!
b1 C!
b1000000010100000010 H!
1&!
1'!
10!
1:!
0n
1m
0g
1f
0e
1d
0]
1\
#240000
0%
0<
#245000
1%
1<
b10010000101000001010 ;!
1<!
0B!
0A!
b10000000101000000101 H!
0$!
1#!
0"!
1!!
1r
1%!
0(!
0&!
1n
0m
1l
0f
1e
0d
1c
0\
1[
b1111 J!
11
10
1/
1.
#246000
b1 3
#250000
0%
0<
#255000
1%
1<
b10010000101000001010 E!
1F!
0@!
0'!
#260000
0%
0<
#265000
1%
1<
0<!
1A!
b100001010000010100 E!
b1 D!
1B!
0%!
1&!
1(!
#270000
0%
0<
#275000
1%
1<
0A!
b1000010100000101000 E!
b10 D!
b1010000001011 H!
0&!
1m
0l
1k
0e
1d
0c
1b
0[
b0 J!
01
00
0/
0.
#280000
0%
0<
#285000
1%
1<
b10000101000001010000 E!
b11 D!
b10100000010110 H!
0n
1l
0k
1j
0d
1c
0b
1a
#290000
0%
0<
#295000
1%
1<
1A!
b1010000010100000 E!
b100 D!
b101000000101100 H!
1&!
0m
1k
0j
1i
0c
1b
0a
1`
#300000
0%
0<
#305000
1%
1<
0A!
b10100000101000000 E!
b101 D!
b1010000001011001 H!
0&!
1n
0l
1j
0i
1h
0b
1a
0`
1_
#310000
0%
0<
#315000
1%
1<
b101000001010000000 E!
b110 D!
b10100000010110010 H!
0n
1m
0k
1i
0h
1g
0a
1`
0_
1^
#320000
0%
0<
#325000
1%
1<
b1010000010100000000 E!
b111 D!
b101000000101100100 H!
0m
1l
0j
1h
0g
1f
0`
1_
0^
1]
#330000
0%
0<
#335000
1%
1<
b10100000101000000000 E!
b1000 D!
b1010000001011001000 H!
0l
1k
0i
1g
0f
1e
0_
1^
0]
1\
#340000
0%
0<
#345000
1%
1<
1A!
b1000001010000000000 E!
b1001 D!
b10100000010110010000 H!
1&!
0k
1j
0h
1f
0e
1d
0^
1]
0\
1[
#350000
0%
0<
#355000
1%
1<
0A!
b10000010100000000000 E!
b1010 D!
b1000000101100100001 H!
0&!
1n
0j
1i
0g
1e
0d
1c
0]
1\
0[
#360000
0%
0<
#365000
1%
1<
1A!
b101000000000000 E!
b1011 D!
b10000001011001000010 H!
1&!
0n
1m
0i
1h
0f
1d
0c
1b
0\
1[
b1011000 J!
1.
1-
1+
#370000
0%
0<
#375000
1%
1<
0A!
b1010000000000000 E!
b1100 D!
b10110010000101 H!
0&!
1n
0m
1l
0h
1g
0e
1c
0b
1a
0[
b0 J!
0.
0-
0+
#380000
0%
0<
#385000
1%
1<
b10100000000000000 E!
b1101 D!
b101100100001010 H!
0n
1m
0l
1k
0g
1f
0d
1b
0a
1`
#390000
0%
0<
#395000
1%
1<
b101000000000000000 E!
b1110 D!
b1011001000010100 H!
0m
1l
0k
1j
0f
1e
0c
1a
0`
1_
#400000
0%
0<
#405000
1%
1<
b1010000000000000000 E!
b1111 D!
b10110010000101000 H!
0l
1k
0j
1i
0e
1d
0b
1`
0_
1^
#410000
0%
0<
#415000
1%
1<
b10100000000000000000 E!
b10000 D!
b101100100001010000 H!
0k
1j
0i
1h
0d
1c
0a
1_
0^
1]
#420000
0%
0<
#425000
1%
1<
1A!
b1000000000000000000 E!
b10001 D!
b1011001000010100000 H!
1&!
0j
1i
0h
1g
0c
1b
0`
1^
0]
1\
#430000
0%
0<
#435000
1%
1<
0A!
b10000000000000000000 E!
b10010 D!
b10110010000101000001 H!
0&!
1n
0i
1h
0g
1f
0b
1a
0_
1]
0\
1[
b1100000 J!
1,
1+
#440000
0%
0<
#445000
1%
1<
1A!
b0 E!
b10011 D!
b1100100001010000010 H!
1&!
0n
1m
0h
1g
0f
1e
0a
1`
0^
1\
0[
b0 J!
0,
0+
#450000
0%
0<
#455000
1%
1<
0A!
b10100 D!
0F!
1@!
b0 D!
b10 C!
b11001000010100000101 H!
0&!
1'!
00!
1/!
0:!
19!
1n
0m
1l
0g
1f
0e
1d
0`
1_
0]
1[
b10000101 J!
11
1/
1*
#460000
0%
0<
#465000
1%
1<
b10101111111100001111 ;!
1<!
0B!
b10010000101000001010 H!
1$!
1"!
1z
1x
1v
1u
1t
1s
0r
1q
1%!
0(!
0n
1m
0l
1k
0f
1e
0d
1c
0_
1^
0\
b0 J!
01
0/
0*
#466000
b10 3
#470000
0%
0<
#475000
1%
1<
b10101111111100001111 E!
1F!
0@!
0'!
#480000
0%
0<
#485000
1%
1<
0<!
1A!
b1011111111000011110 E!
b1 D!
1B!
0%!
1&!
1(!
#490000
0%
0<
#495000
1%
1<
0A!
b10111111110000111100 E!
b10 D!
b100001010000010101 H!
0&!
1n
0m
1l
0k
1j
0e
1d
0c
1b
0^
1]
0[
#500000
0%
0<
#505000
1%
1<
1A!
b1111111100001111000 E!
b11 D!
b1000010100000101010 H!
1&!
0n
1m
0l
1k
0j
1i
0d
1c
0b
1a
0]
1\
#510000
0%
0<
#515000
1%
1<
0A!
b11111111000011110000 E!
b100 D!
b10000101000001010101 H!
0&!
1n
0m
1l
0k
1j
0i
1h
0c
1b
0a
1`
0\
1[
b10100101 J!
11
1/
1,
1*
#520000
0%
0<
#525000
1%
1<
1A!
b11111110000111100000 E!
b101 D!
b1010000010101010 H!
1&!
0n
1m
0l
1k
0j
1i
0h
1g
0b
1a
0`
1_
0[
b0 J!
01
0/
0,
0*
#530000
0%
0<
#535000
1%
1<
b11111100001111000000 E!
b110 D!
b10100000101010101 H!
1n
0m
1l
0k
1j
0i
1h
0g
1f
0a
1`
0_
1^
#540000
0%
0<
#545000
1%
1<
b11111000011110000000 E!
b111 D!
b101000001010101011 H!
1m
0l
1k
0j
1i
0h
1g
0f
1e
0`
1_
0^
1]
#550000
0%
0<
#555000
1%
1<
b11110000111100000000 E!
b1000 D!
b1010000010101010111 H!
1l
0k
1j
0i
1h
0g
1f
0e
1d
0_
1^
0]
1\
#560000
0%
0<
#565000
1%
1<
b11100001111000000000 E!
b1001 D!
b10100000101010101111 H!
1k
0j
1i
0h
1g
0f
1e
0d
1c
0^
1]
0\
1[
b1010 J!
10
1.
#570000
0%
0<
#575000
1%
1<
b11000011110000000000 E!
b1010 D!
b1000001010101011111 H!
1j
0i
1h
0g
1f
0e
1d
0c
1b
0]
1\
0[
b0 J!
00
0.
#580000
0%
0<
#585000
1%
1<
b10000111100000000000 E!
b1011 D!
b10000010101010111111 H!
1i
0h
1g
0f
1e
0d
1c
0b
1a
0\
1[
b11101001 J!
11
1.
1,
1+
1*
#590000
0%
0<
#595000
1%
1<
b1111000000000000 E!
b1100 D!
b101010101111111 H!
1h
0g
1f
0e
1d
0c
1b
0a
1`
0[
b0 J!
01
0.
0,
0+
0*
#600000
0%
0<
#605000
1%
1<
0A!
b11110000000000000 E!
b1101 D!
b1010101011111111 H!
0&!
1g
0f
1e
0d
1c
0b
1a
0`
1_
#610000
0%
0<
#615000
1%
1<
b111100000000000000 E!
b1110 D!
b10101010111111110 H!
0n
1f
0e
1d
0c
1b
0a
1`
0_
1^
#620000
0%
0<
#625000
1%
1<
b1111000000000000000 E!
b1111 D!
b101010101111111100 H!
0m
1e
0d
1c
0b
1a
0`
1_
0^
1]
#630000
0%
0<
#635000
1%
1<
b11110000000000000000 E!
b10000 D!
b1010101011111111000 H!
0l
1d
0c
1b
0a
1`
0_
1^
0]
1\
#640000
0%
0<
#645000
1%
1<
1A!
b11100000000000000000 E!
b10001 D!
b10101010111111110000 H!
1&!
0k
1c
0b
1a
0`
1_
0^
1]
0\
1[
b10100000 J!
1,
1*
#650000
0%
0<
#655000
1%
1<
b11000000000000000000 E!
b10010 D!
b1010101111111100001 H!
1n
0j
1b
0a
1`
0_
1^
0]
1\
0[
b0 J!
0,
0*
#660000
0%
0<
#665000
1%
1<
b10000000000000000000 E!
b10011 D!
b10101011111111000011 H!
1m
0i
1a
0`
1_
0^
1]
0\
1[
b10000011 J!
11
10
1*
#670000
0%
0<
#675000
1%
1<
b0 E!
b10100 D!
0F!
1@!
b0 D!
b11 C!
b1010111111110000111 H!
1'!
10!
1:!
1l
0h
1`
0_
1^
0]
1\
0[
b0 J!
01
00
0*
#680000
0%
0<
#685000
1%
1<
b10111111111100001111 ;!
1<!
0B!
0A!
b10101111111100001111 H!
1r
1%!
0(!
0&!
1k
0g
1_
0^
1]
0\
1[
b1111 J!
11
10
1/
1.
#686000
b11 3
#690000
0%
0<
#695000
1%
1<
b10111111111100001111 E!
1F!
0@!
0'!
#700000
0%
0<
#705000
1%
1<
0<!
1A!
b1111111111000011110 E!
b1 D!
1B!
0%!
1&!
1(!
#710000
0%
0<
#715000
1%
1<
0A!
b11111111110000111100 E!
b10 D!
b1011111111000011111 H!
0&!
1j
0f
1^
0]
1\
0[
b0 J!
01
00
0/
0.
#720000
0%
0<
#725000
1%
1<
1A!
b11111111100001111000 E!
b11 D!
b10111111110000111110 H!
1&!
0n
1i
0e
1]
0\
1[
b11000010 J!
10
1+
1*
#730000
0%
0<
#735000
1%
1<
b11111111000011110000 E!
b100 D!
b1111111100001111101 H!
1n
0m
1h
0d
1\
0[
b0 J!
00
0+
0*
#740000
0%
0<
#745000
1%
1<
b11111110000111100000 E!
b101 D!
b11111111000011111011 H!
1m
0l
1g
0c
1[
#750000
0%
0<
#755000
1%
1<
b11111100001111000000 E!
b110 D!
b11111110000111110111 H!
1l
0k
1f
0b
#760000
0%
0<
#765000
1%
1<
b11111000011110000000 E!
b111 D!
b11111100001111101111 H!
1k
0j
1e
0a
#770000
0%
0<
#775000
1%
1<
b11110000111100000000 E!
b1000 D!
b11111000011111011111 H!
1j
0i
1d
0`
#780000
0%
0<
#785000
1%
1<
b11100001111000000000 E!
b1001 D!
b11110000111110111111 H!
1i
0h
1c
0_
#790000
0%
0<
#795000
1%
1<
b11000011110000000000 E!
b1010 D!
b11100001111101111111 H!
1h
0g
1b
0^
#800000
0%
0<
#805000
1%
1<
b10000111100000000000 E!
b1011 D!
b11000011111011111111 H!
1g
0f
1a
0]
b11111111 J!
11
10
1/
1.
1-
1,
1+
1*
#810000
0%
0<
#815000
1%
1<
b1111000000000000 E!
b1100 D!
b10000111110111111111 H!
1f
0e
1`
0\
b1111100 J!
01
00
0*
#820000
0%
0<
#825000
1%
1<
0A!
b11110000000000000 E!
b1101 D!
b1111101111111111 H!
0&!
1e
0d
1_
0[
b0 J!
0/
0.
0-
0,
0+
#830000
0%
0<
#835000
1%
1<
b111100000000000000 E!
b1110 D!
b11111011111111110 H!
0n
1d
0c
1^
#840000
0%
0<
#845000
1%
1<
b1111000000000000000 E!
b1111 D!
b111110111111111100 H!
0m
1c
0b
1]
#850000
0%
0<
#855000
1%
1<
b11110000000000000000 E!
b10000 D!
b1111101111111111000 H!
0l
1b
0a
1\
#860000
0%
0<
#865000
1%
1<
1A!
b11100000000000000000 E!
b10001 D!
b11111011111111110000 H!
1&!
0k
1a
0`
1[
#870000
0%
0<
#875000
1%
1<
b11000000000000000000 E!
b10010 D!
b11110111111111100001 H!
1n
0j
1`
0_
#880000
0%
0<
#885000
1%
1<
b10000000000000000000 E!
b10011 D!
b11101111111111000011 H!
1m
0i
1_
0^
#890000
0%
0<
#895000
1%
1<
b0 E!
b10100 D!
0F!
1@!
b0 D!
b100 C!
b11011111111110000111 H!
1'!
00!
0/!
1.!
0:!
09!
18!
1l
0h
1^
0]
b11111111 J!
11
10
1/
1.
1-
1,
1+
1*
#900000
0%
0<
#905000
1%
1<
b11000000111111110000 ;!
1<!
0B!
0A!
b10111111111100001111 H!
0$!
0#!
0"!
0!!
1~
1}
1|
1{
0v
0u
0t
0s
0r
0q
1p
1%!
0(!
0&!
1k
0g
1]
0\
b11110000 J!
01
00
0/
0.
#906000
b100 3
#910000
0%
0<
#915000
1%
1<
b11000000111111110000 E!
1F!
0@!
0'!
#920000
0%
0<
#925000
1%
1<
0<!
1A!
b10000001111111100000 E!
b1 D!
1B!
0%!
1&!
1(!
#930000
0%
0<
#935000
1%
1<
b11111111000000 E!
b10 D!
b1111111111000011111 H!
1j
0f
1\
0[
b0 J!
0-
0,
0+
0*
#940000
0%
0<
#945000
1%
1<
0A!
b111111110000000 E!
b11 D!
b11111111110000111111 H!
0&!
1i
0e
1[
#950000
0%
0<
#955000
1%
1<
b1111111100000000 E!
b100 D!
b11111111100001111110 H!
0n
1h
0d
#960000
0%
0<
#965000
1%
1<
b11111111000000000 E!
b101 D!
b11111111000011111100 H!
0m
1g
0c
#970000
0%
0<
#975000
1%
1<
b111111110000000000 E!
b110 D!
b11111110000111111000 H!
0l
1f
0b
#980000
0%
0<
#985000
1%
1<
b1111111100000000000 E!
b111 D!
b11111100001111110000 H!
0k
1e
0a
#990000
0%
0<
#995000
1%
1<
b11111111000000000000 E!
b1000 D!
b11111000011111100000 H!
0j
1d
0`
#1000000
0%
0<
#1005000
1%
1<
1A!
b11111110000000000000 E!
b1001 D!
b11110000111111000000 H!
1&!
0i
1c
0_
#1010000
0%
0<
#1015000
1%
1<
b11111100000000000000 E!
b1010 D!
b11100001111110000001 H!
1n
0h
1b
0^
#1020000
0%
0<
#1025000
1%
1<
b11111000000000000000 E!
b1011 D!
b11000011111100000011 H!
1m
0g
1a
0]
b111111 J!
11
10
1/
1.
1-
1,
#1030000
0%
0<
#1035000
1%
1<
b11110000000000000000 E!
b1100 D!
b10000111111000000111 H!
1l
0f
1`
0\
b10000101 J!
00
0.
0-
0,
1*
#1040000
0%
0<
#1045000
1%
1<
b11100000000000000000 E!
b1101 D!
b1111110000001111 H!
1k
0e
1_
0[
b0 J!
01
0/
0*
#1050000
0%
0<
#1055000
1%
1<
b11000000000000000000 E!
b1110 D!
b11111100000011111 H!
1j
0d
1^
#1060000
0%
0<
#1065000
1%
1<
b10000000000000000000 E!
b1111 D!
b111111000000111111 H!
1i
0c
1]
#1070000
0%
0<
#1075000
1%
1<
b0 E!
b10000 D!
b1111110000001111111 H!
1h
0b
1\
#1080000
0%
0<
#1085000
1%
1<
0A!
b10001 D!
b11111100000011111111 H!
0&!
1g
0a
1[
#1090000
0%
0<
#1095000
1%
1<
b10010 D!
b11111000000111111110 H!
0n
1f
0`
#1100000
0%
0<
#1105000
1%
1<
b10011 D!
b11110000001111111100 H!
0m
1e
0_
#1110000
0%
0<
#1115000
1%
1<
b10100 D!
0F!
1@!
b0 D!
b101 C!
b11100000011111111000 H!
1'!
10!
1:!
0l
1d
0^
#1120000
0%
0<
#1125000
1%
1<
b101000000101 ;!
1<!
0B!
b11000000111111110000 H!
1$!
1"!
0~
0}
0|
0{
0z
0x
0p
0o
1%!
0(!
0k
1c
0]
b11111111 J!
11
10
1/
1.
1-
1,
1+
1*
#1126000
b101 3
#1130000
0%
0<
#1135000
1%
1<
b101000000101 E!
1F!
0@!
0'!
#1140000
0%
0<
#1145000
1%
1<
0<!
b1010000001010 E!
b1 D!
1B!
0%!
1(!
#1150000
0%
0<
#1155000
1%
1<
b10100000010100 E!
b10 D!
b10000001111111100000 H!
0j
1b
0\
#1160000
0%
0<
#1165000
1%
1<
b101000000101000 E!
b11 D!
b11111111000000 H!
0i
1a
0[
b0 J!
01
00
0/
0.
0-
0,
0+
0*
#1170000
0%
0<
#1175000
1%
1<
b1010000001010000 E!
b100 D!
b111111110000000 H!
0h
1`
#1180000
0%
0<
#1185000
1%
1<
b10100000010100000 E!
b101 D!
b1111111100000000 H!
0g
1_
#1190000
0%
0<
#1195000
1%
1<
b101000000101000000 E!
b110 D!
b11111111000000000 H!
0f
1^
#1200000
0%
0<
#1205000
1%
1<
b1010000001010000000 E!
b111 D!
b111111110000000000 H!
0e
1]
#1210000
0%
0<
#1215000
1%
1<
b10100000010100000000 E!
b1000 D!
b1111111100000000000 H!
0d
1\
#1220000
0%
0<
#1225000
1%
1<
1A!
b1000000101000000000 E!
b1001 D!
b11111111000000000000 H!
1&!
0c
1[
#1230000
0%
0<
#1235000
1%
1<
0A!
b10000001010000000000 E!
b1010 D!
b11111110000000000001 H!
0&!
1n
0b
#1240000
0%
0<
#1245000
1%
1<
1A!
b10100000000000 E!
b1011 D!
b11111100000000000010 H!
1&!
0n
1m
0a
#1250000
0%
0<
#1255000
1%
1<
0A!
b101000000000000 E!
b1100 D!
b11111000000000000101 H!
0&!
1n
0m
1l
0`
#1260000
0%
0<
#1265000
1%
1<
b1010000000000000 E!
b1101 D!
b11110000000000001010 H!
0n
1m
0l
1k
0_
1K!
12
#1270000
0%
0<
#1275000
1%
1<
b10100000000000000 E!
b1110 D!
b11100000000000010100 H!
0m
1l
0k
1j
0^
#1280000
0%
0<
#1285000
1%
1<
b101000000000000000 E!
b1111 D!
b11000000000000101000 H!
0l
1k
0j
1i
0]
b101000 J!
1.
1,
#1290000
0%
0<
#1295000
1%
1<
b1010000000000000000 E!
b10000 D!
b10000000000001010000 H!
0k
1j
0i
1h
0\
b1010000 J!
0.
1-
0,
1+
#1300000
0%
0<
#1305000
1%
1<
b10100000000000000000 E!
b10001 D!
b10100000 H!
0j
1i
0h
1g
0[
0K!
b0 J!
02
0-
0+
#1310000
0%
0<
#1315000
1%
1<
1A!
b1000000000000000000 E!
b10010 D!
b101000000 H!
1&!
0i
1h
0g
1f
#1320000
0%
0<
#1325000
1%
1<
0A!
b10000000000000000000 E!
b10011 D!
b1010000001 H!
0&!
1n
0h
1g
0f
1e
#1330000
0%
0<
#1335000
1%
1<
1A!
b0 E!
b10100 D!
0F!
1@!
b0 D!
b110 C!
b10100000010 H!
1&!
1'!
00!
1/!
0:!
19!
0n
1m
0g
1f
0e
1d
#1340000
0%
0<
#1345000
1%
1<
b10000000000000000101 ;!
1<!
0B!
0A!
b101000000101 H!
0y
0w
1o
1%!
0(!
0&!
1n
0m
1l
0f
1e
0d
1c
#1346000
b110 3
#1350000
0%
0<
#1355000
1%
1<
b10000000000000000101 E!
1F!
0@!
0'!
#1360000
0%
0<
